module github.com/haunt98/populatedb-go

go 1.22.2

require (
	github.com/brianvoe/gofakeit/v6 v6.28.0
	github.com/go-sql-driver/mysql v1.8.1
	github.com/k1LoW/tbls v1.75.0
	github.com/make-go-great/color-go v0.5.0
	github.com/urfave/cli/v2 v2.27.2
)

require (
	cloud.google.com/go v0.112.2 // indirect
	cloud.google.com/go/auth v0.2.2 // indirect
	cloud.google.com/go/auth/oauth2adapt v0.2.1 // indirect
	cloud.google.com/go/bigquery v1.61.0 // indirect
	cloud.google.com/go/compute/metadata v0.3.0 // indirect
	cloud.google.com/go/iam v1.1.7 // indirect
	cloud.google.com/go/spanner v1.60.0 // indirect
	filippo.io/edwards25519 v1.1.0 // indirect
	github.com/99designs/go-keychain v0.0.0-20191008050251-8e49817e8af4 // indirect
	github.com/99designs/keyring v1.2.2 // indirect
	github.com/Azure/azure-sdk-for-go/sdk/azcore v1.9.1 // indirect
	github.com/Azure/azure-sdk-for-go/sdk/azidentity v1.5.1 // indirect
	github.com/Azure/azure-sdk-for-go/sdk/internal v1.5.1 // indirect
	github.com/Azure/azure-sdk-for-go/sdk/storage/azblob v1.2.1 // indirect
	github.com/JohnCGriffin/overflow v0.0.0-20211019200055-46fa312c352c // indirect
	github.com/apache/arrow/go/v15 v15.0.2 // indirect
	github.com/aquasecurity/go-version v0.0.0-20210121072130-637058cfe492 // indirect
	github.com/aws/aws-sdk-go v1.51.32 // indirect
	github.com/aws/aws-sdk-go-v2 v1.24.1 // indirect
	github.com/aws/aws-sdk-go-v2/aws/protocol/eventstream v1.5.4 // indirect
	github.com/aws/aws-sdk-go-v2/credentials v1.16.16 // indirect
	github.com/aws/aws-sdk-go-v2/feature/s3/manager v1.15.15 // indirect
	github.com/aws/aws-sdk-go-v2/internal/configsources v1.2.10 // indirect
	github.com/aws/aws-sdk-go-v2/internal/endpoints/v2 v2.5.10 // indirect
	github.com/aws/aws-sdk-go-v2/internal/v4a v1.2.10 // indirect
	github.com/aws/aws-sdk-go-v2/service/internal/accept-encoding v1.10.4 // indirect
	github.com/aws/aws-sdk-go-v2/service/internal/checksum v1.2.10 // indirect
	github.com/aws/aws-sdk-go-v2/service/internal/presigned-url v1.10.10 // indirect
	github.com/aws/aws-sdk-go-v2/service/internal/s3shared v1.16.10 // indirect
	github.com/aws/aws-sdk-go-v2/service/s3 v1.48.1 // indirect
	github.com/aws/smithy-go v1.19.0 // indirect
	github.com/bradleyfalzon/ghinstallation/v2 v2.10.0 // indirect
	github.com/buildkite/interpolate v0.0.0-20200526001904-07f35b4ae251 // indirect
	github.com/census-instrumentation/opencensus-proto v0.4.1 // indirect
	github.com/cespare/xxhash/v2 v2.2.0 // indirect
	github.com/cli/go-gh/v2 v2.6.0 // indirect
	github.com/cli/safeexec v1.0.1 // indirect
	github.com/cncf/xds/go v0.0.0-20231128003011-0fa0005c9caa // indirect
	github.com/cpuguy83/go-md2man/v2 v2.0.4 // indirect
	github.com/danieljoos/wincred v1.2.1 // indirect
	github.com/dvsekhvalnov/jose2go v1.6.0 // indirect
	github.com/envoyproxy/go-control-plane v0.12.0 // indirect
	github.com/envoyproxy/protoc-gen-validate v1.0.4 // indirect
	github.com/expr-lang/expr v1.16.5 // indirect
	github.com/fatih/color v1.16.0 // indirect
	github.com/felixge/httpsnoop v1.0.4 // indirect
	github.com/form3tech-oss/jwt-go v3.2.5+incompatible // indirect
	github.com/gabriel-vasile/mimetype v1.4.3 // indirect
	github.com/gertd/go-pluralize v0.2.1 // indirect
	github.com/go-logr/logr v1.4.1 // indirect
	github.com/go-logr/stdr v1.2.2 // indirect
	github.com/goccy/go-json v0.10.2 // indirect
	github.com/goccy/go-yaml v1.11.3 // indirect
	github.com/godbus/dbus v0.0.0-20190726142602-4481cbc300e2 // indirect
	github.com/golang-jwt/jwt/v4 v4.5.0 // indirect
	github.com/golang/groupcache v0.0.0-20210331224755-41bb18bfe9da // indirect
	github.com/golang/protobuf v1.5.4 // indirect
	github.com/golang/snappy v0.0.4 // indirect
	github.com/google/flatbuffers v23.5.26+incompatible // indirect
	github.com/google/go-github/v58 v58.0.0 // indirect
	github.com/google/go-github/v60 v60.0.0 // indirect
	github.com/google/go-querystring v1.1.0 // indirect
	github.com/google/s2a-go v0.1.7 // indirect
	github.com/google/uuid v1.6.0 // indirect
	github.com/googleapis/enterprise-certificate-proxy v0.3.2 // indirect
	github.com/googleapis/gax-go/v2 v2.12.3 // indirect
	github.com/gsterjov/go-libsecret v0.0.0-20161001094733-a6f4afe4910c // indirect
	github.com/jmespath/go-jmespath v0.4.0 // indirect
	github.com/json-iterator/go v1.1.12 // indirect
	github.com/k1LoW/duration v1.2.0 // indirect
	github.com/k1LoW/expand v0.12.0 // indirect
	github.com/k1LoW/ghfs v1.3.1 // indirect
	github.com/k1LoW/go-github-client/v58 v58.0.12 // indirect
	github.com/klauspost/compress v1.17.4 // indirect
	github.com/klauspost/cpuid/v2 v2.2.6 // indirect
	github.com/lib/pq v1.10.9 // indirect
	github.com/mattn/go-colorable v0.1.13 // indirect
	github.com/mattn/go-isatty v0.0.20 // indirect
	github.com/minio/pkg v1.7.5 // indirect
	github.com/modern-go/concurrent v0.0.0-20180306012644-bacd9c7ef1dd // indirect
	github.com/modern-go/reflect2 v1.0.2 // indirect
	github.com/montanaflynn/stats v0.7.1 // indirect
	github.com/mtibben/percent v0.2.1 // indirect
	github.com/pierrec/lz4/v4 v4.1.21 // indirect
	github.com/pkg/browser v0.0.0-20240102092130-5ac0b6a4141c // indirect
	github.com/pkg/errors v0.9.1 // indirect
	github.com/russross/blackfriday/v2 v2.1.0 // indirect
	github.com/samber/lo v1.39.0 // indirect
	github.com/sirupsen/logrus v1.9.3 // indirect
	github.com/snowflakedb/gosnowflake v1.9.0 // indirect
	github.com/xdg-go/pbkdf2 v1.0.0 // indirect
	github.com/xdg-go/scram v1.1.2 // indirect
	github.com/xdg-go/stringprep v1.0.4 // indirect
	github.com/xo/dburl v0.23.0 // indirect
	github.com/xrash/smetrics v0.0.0-20240312152122-5f08fbb34913 // indirect
	github.com/youmark/pkcs8 v0.0.0-20201027041543-1326539a0a0a // indirect
	github.com/zeebo/xxh3 v1.0.2 // indirect
	go.mongodb.org/mongo-driver v1.15.0 // indirect
	go.opencensus.io v0.24.0 // indirect
	go.opentelemetry.io/contrib/instrumentation/google.golang.org/grpc/otelgrpc v0.49.0 // indirect
	go.opentelemetry.io/contrib/instrumentation/net/http/otelhttp v0.49.0 // indirect
	go.opentelemetry.io/otel v1.24.0 // indirect
	go.opentelemetry.io/otel/metric v1.24.0 // indirect
	go.opentelemetry.io/otel/trace v1.24.0 // indirect
	golang.org/x/crypto v0.22.0 // indirect
	golang.org/x/exp v0.0.0-20240213143201-ec583247a57a // indirect
	golang.org/x/mod v0.17.0 // indirect
	golang.org/x/net v0.24.0 // indirect
	golang.org/x/oauth2 v0.19.0 // indirect
	golang.org/x/sync v0.7.0 // indirect
	golang.org/x/sys v0.19.0 // indirect
	golang.org/x/term v0.19.0 // indirect
	golang.org/x/text v0.14.0 // indirect
	golang.org/x/time v0.5.0 // indirect
	golang.org/x/tools v0.20.0 // indirect
	golang.org/x/xerrors v0.0.0-20231012003039-104605ab7028 // indirect
	google.golang.org/api v0.175.0 // indirect
	google.golang.org/genproto v0.0.0-20240401170217-c3f982113cda // indirect
	google.golang.org/genproto/googleapis/api v0.0.0-20240415180920-8c6c420018be // indirect
	google.golang.org/genproto/googleapis/rpc v0.0.0-20240415180920-8c6c420018be // indirect
	google.golang.org/grpc v1.63.2 // indirect
	google.golang.org/protobuf v1.33.0 // indirect
	gopkg.in/yaml.v3 v3.0.1 // indirect
)
